{
    "KPlugin": {
        "Authors": [
            {
                "Email": "carl@carlschwan.eu",
                "Name": "Carl Schwan",
                "Name[ar]": "Carl Schwan",
                "Name[ca@valencia]": "Carl Schwan",
                "Name[ca]": "Carl Schwan",
                "Name[cs]": "Carl Schwan",
                "Name[de]": "Carl Schwan",
                "Name[en_GB]": "Carl Schwan",
                "Name[eo]": "Carl Schwan",
                "Name[es]": "Carl Schwan",
                "Name[eu]": "Carl Schwan",
                "Name[fi]": "Carl Schwan",
                "Name[fr]": "Carl Schwan",
                "Name[gl]": "Carl Schwan",
                "Name[ia]": "Carl Schwan",
                "Name[it]": "Carl Schwan",
                "Name[ka]": "Carl Schwan",
                "Name[ko]": "Carl Schwan",
                "Name[lt]": "Carl Schwan",
                "Name[nl]": "Carl Schwan",
                "Name[pl]": "Carl Schwan",
                "Name[pt]": "Carl Schwan",
                "Name[pt_BR]": "Carl Schwan",
                "Name[ru]": "Carl Schwan",
                "Name[sk]": "Carl Schwan",
                "Name[sl]": "Carl Schwan",
                "Name[sv]": "Carl Schwan",
                "Name[ta]": "கார்ல் ஷுவான்",
                "Name[tr]": "Carl Schwan",
                "Name[uk]": "Carl Schwan",
                "Name[x-test]": "xxCarl Schwanxx"
            }
        ],
        "Category": "Personal information",
        "Description": "Contact list",
        "Description[ar]": "قائمة المراسلين",
        "Description[ast]": "Llista de contautos",
        "Description[ca@valencia]": "Llista de contactes",
        "Description[ca]": "Llista de contactes",
        "Description[cs]": "Seznam kontaktů",
        "Description[de]": "Kontaktliste",
        "Description[en_GB]": "Contact list",
        "Description[eo]": "Kontaktlisto",
        "Description[es]": "Lista de contactos",
        "Description[eu]": "Kontaktuen zerrenda",
        "Description[fi]": "Yhteystietoluettelo",
        "Description[fr]": "Liste de contacts",
        "Description[gl]": "Lista de contactos.",
        "Description[ia]": "Lista de contacto",
        "Description[it]": "Elenco dei contatti",
        "Description[ka]": "კონტაქტების სია",
        "Description[ko]": "연락처 목록",
        "Description[lt]": "Adresatų sąrašas",
        "Description[nl]": "Contactenlijst",
        "Description[pl]": "Spis kontaktów",
        "Description[pt]": "Lista de contactos",
        "Description[pt_BR]": "Lista de contatos",
        "Description[ru]": "Список контактов",
        "Description[sk]": "Zoznam kontaktov",
        "Description[sl]": "Seznam stikov",
        "Description[sv]": "Kontaktlista",
        "Description[ta]": "தொடர்புப்பட்டியல்",
        "Description[tr]": "Kişi listesi",
        "Description[uk]": "Список контактів",
        "Description[x-test]": "xxContact listxx",
        "Description[zh_CN]": "联系人列表",
        "EnabledByDefault": true,
        "FormFactors": [
            "desktop"
        ],
        "Icon": "im-user",
        "Id": "org.kde.merkuro.contact",
        "License": "GPL-2.0+",
        "Name": "Contact",
        "Name[ar]": "المراسَل",
        "Name[ca@valencia]": "Contact",
        "Name[ca]": "Contact",
        "Name[cs]": "Kontakt",
        "Name[de]": "Kontakt",
        "Name[en_GB]": "Contact",
        "Name[eo]": "Contact",
        "Name[es]": "Contacto",
        "Name[eu]": "Contact",
        "Name[fi]": "Yhteystieto",
        "Name[fr]": "Contact",
        "Name[gl]": "Contacto",
        "Name[ia]": "Contacto",
        "Name[it]": "Contatto",
        "Name[ka]": "კონტაქტი",
        "Name[ko]": "연락처",
        "Name[lt]": "Adresatas",
        "Name[nl]": "Contactpersoon",
        "Name[pl]": "Kontakt",
        "Name[pt]": "Contacto",
        "Name[pt_BR]": "Contato",
        "Name[ru]": "Контакт",
        "Name[sk]": "Kontakt",
        "Name[sl]": "Stik",
        "Name[sv]": "Kontakt",
        "Name[ta]": "தொடர்பு",
        "Name[tr]": "Kişiler",
        "Name[uk]": "Контакт",
        "Name[x-test]": "xxContactxx",
        "Name[zh_CN]": "联系我们",
        "ServiceTypes": [
            "Plasma/Applet"
        ],
        "Version": "1.0.0",
        "Website": "https://apps.kde.org/merkuro.contact"
    },
    "X-Plasma-API": "declarativeappletscript",
    "X-Plasma-MainScript": "ui/main.qml",
    "X-Plasma-NotificationArea": "true",
    "X-Plasma-NotificationAreaCategory": "PIM"
}
